--temp-output:D:\Alena\Training.Net\AAADB\TicketsApplication\src\TicketsApplication\bin\src\BLL\obj\Debug\netstandard1.6\
--out:D:\Alena\Training.Net\AAADB\TicketsApplication\src\TicketsApplication\bin\src\BLL\bin\Debug\netstandard1.6\BLL.dll
--define:DEBUG
--define:TRACE
--define:NETSTANDARD1_6
--suppress-warning:CS1701
--suppress-warning:CS1702
--suppress-warning:CS1705
--optimize:False
--output-name:BLL
--file-version:1.0.0.0
--version:1.0.0.0
--informational-version:1.0.0
--target-framework:.NETStandard,Version=v1.6
--reference:C:\Users\userracer\.nuget\packages\AutoMapper\5.2.0\lib\netstandard1.3\AutoMapper.dll
--reference:C:\Users\userracer\.nuget\packages\AutoMapper.Extensions.Microsoft.DependencyInjection\1.2.0\lib\netstandard1.6\AutoMapper.Extensions.Microsoft.DependencyInjection.dll
--reference:C:\Users\userracer\.nuget\packages\Microsoft.CSharp\4.0.1\ref\netstandard1.0\Microsoft.CSharp.dll
--reference:C:\Users\userracer\.nuget\packages\Microsoft.DotNet.InternalAbstractions\1.0.0\lib\netstandard1.3\Microsoft.DotNet.InternalAbstractions.dll
--reference:C:\Users\userracer\.nuget\packages\Microsoft.EntityFrameworkCore\1.1.0\lib\netstandard1.3\Microsoft.EntityFrameworkCore.dll
--reference:C:\Users\userracer\.nuget\packages\Microsoft.Extensions.Caching.Abstractions\1.1.0\lib\netstandard1.0\Microsoft.Extensions.Caching.Abstractions.dll
--reference:C:\Users\userracer\.nuget\packages\Microsoft.Extensions.Caching.Memory\1.1.0\lib\netstandard1.3\Microsoft.Extensions.Caching.Memory.dll
--reference:C:\Users\userracer\.nuget\packages\Microsoft.Extensions.DependencyInjection\1.1.0\lib\netstandard1.1\Microsoft.Extensions.DependencyInjection.dll
--reference:C:\Users\userracer\.nuget\packages\Microsoft.Extensions.DependencyInjection.Abstractions\1.1.0\lib\netstandard1.0\Microsoft.Extensions.DependencyInjection.Abstractions.dll
--reference:C:\Users\userracer\.nuget\packages\Microsoft.Extensions.DependencyModel\1.0.0\lib\netstandard1.6\Microsoft.Extensions.DependencyModel.dll
--reference:C:\Users\userracer\.nuget\packages\Microsoft.Extensions.Logging\1.1.0\lib\netstandard1.1\Microsoft.Extensions.Logging.dll
--reference:C:\Users\userracer\.nuget\packages\Microsoft.Extensions.Logging.Abstractions\1.1.0\lib\netstandard1.1\Microsoft.Extensions.Logging.Abstractions.dll
--reference:C:\Users\userracer\.nuget\packages\Microsoft.Extensions.Options\1.1.0\lib\netstandard1.0\Microsoft.Extensions.Options.dll
--reference:C:\Users\userracer\.nuget\packages\Microsoft.Extensions.Primitives\1.1.0\lib\netstandard1.0\Microsoft.Extensions.Primitives.dll
--reference:C:\Users\userracer\.nuget\packages\Microsoft.Win32.Primitives\4.0.1\ref\netstandard1.3\Microsoft.Win32.Primitives.dll
--reference:C:\Users\userracer\.nuget\packages\Newtonsoft.Json\9.0.1\lib\netstandard1.0\Newtonsoft.Json.dll
--reference:C:\Users\userracer\.nuget\packages\Remotion.Linq\2.1.1\lib\netstandard1.0\Remotion.Linq.dll
--reference:C:\Users\userracer\.nuget\packages\System.AppContext\4.1.0\ref\netstandard1.6\System.AppContext.dll
--reference:C:\Users\userracer\.nuget\packages\System.Collections\4.3.0\ref\netstandard1.3\System.Collections.dll
--reference:C:\Users\userracer\.nuget\packages\System.Collections.Concurrent\4.0.12\ref\netstandard1.3\System.Collections.Concurrent.dll
--reference:C:\Users\userracer\.nuget\packages\System.Collections.Immutable\1.3.0\lib\netstandard1.0\System.Collections.Immutable.dll
--reference:C:\Users\userracer\.nuget\packages\System.Collections.NonGeneric\4.0.1\ref\netstandard1.3\System.Collections.NonGeneric.dll
--reference:C:\Users\userracer\.nuget\packages\System.Collections.Specialized\4.0.1\ref\netstandard1.3\System.Collections.Specialized.dll
--reference:C:\Users\userracer\.nuget\packages\System.ComponentModel\4.3.0\ref\netstandard1.0\System.ComponentModel.dll
--reference:C:\Users\userracer\.nuget\packages\System.ComponentModel.Annotations\4.3.0\ref\netstandard1.4\System.ComponentModel.Annotations.dll
--reference:C:\Users\userracer\.nuget\packages\System.ComponentModel.Primitives\4.1.0\ref\netstandard1.0\System.ComponentModel.Primitives.dll
--reference:C:\Users\userracer\.nuget\packages\System.ComponentModel.TypeConverter\4.1.0\ref\netstandard1.5\System.ComponentModel.TypeConverter.dll
--reference:C:\Users\userracer\.nuget\packages\System.Console\4.0.0\ref\netstandard1.3\System.Console.dll
--reference:C:\Users\userracer\.nuget\packages\System.Diagnostics.Debug\4.3.0\ref\netstandard1.3\System.Diagnostics.Debug.dll
--reference:C:\Users\userracer\.nuget\packages\System.Diagnostics.Tools\4.0.1\ref\netstandard1.0\System.Diagnostics.Tools.dll
--reference:C:\Users\userracer\.nuget\packages\System.Diagnostics.Tracing\4.1.0\ref\netstandard1.5\System.Diagnostics.Tracing.dll
--reference:C:\Users\userracer\.nuget\packages\System.Dynamic.Runtime\4.0.11\ref\netstandard1.3\System.Dynamic.Runtime.dll
--reference:C:\Users\userracer\.nuget\packages\System.Globalization\4.3.0\ref\netstandard1.3\System.Globalization.dll
--reference:C:\Users\userracer\.nuget\packages\System.Globalization.Calendars\4.0.1\ref\netstandard1.3\System.Globalization.Calendars.dll
--reference:C:\Users\userracer\.nuget\packages\System.Interactive.Async\3.0.0\lib\netstandard1.0\System.Interactive.Async.dll
--reference:C:\Users\userracer\.nuget\packages\System.IO\4.3.0\ref\netstandard1.5\System.IO.dll
--reference:C:\Users\userracer\.nuget\packages\System.IO.Compression\4.1.0\ref\netstandard1.3\System.IO.Compression.dll
--reference:C:\Users\userracer\.nuget\packages\System.IO.Compression.ZipFile\4.0.1\ref\netstandard1.3\System.IO.Compression.ZipFile.dll
--reference:C:\Users\userracer\.nuget\packages\System.IO.FileSystem\4.0.1\ref\netstandard1.3\System.IO.FileSystem.dll
--reference:C:\Users\userracer\.nuget\packages\System.IO.FileSystem.Primitives\4.0.1\ref\netstandard1.3\System.IO.FileSystem.Primitives.dll
--reference:C:\Users\userracer\.nuget\packages\System.Linq\4.3.0\ref\netstandard1.6\System.Linq.dll
--reference:C:\Users\userracer\.nuget\packages\System.Linq.Expressions\4.3.0\ref\netstandard1.6\System.Linq.Expressions.dll
--reference:C:\Users\userracer\.nuget\packages\System.Linq.Queryable\4.3.0\ref\netstandard1.0\System.Linq.Queryable.dll
--reference:C:\Users\userracer\.nuget\packages\System.Net.Http\4.1.0\ref\netstandard1.3\System.Net.Http.dll
--reference:C:\Users\userracer\.nuget\packages\System.Net.Primitives\4.0.11\ref\netstandard1.3\System.Net.Primitives.dll
--reference:C:\Users\userracer\.nuget\packages\System.Net.Sockets\4.1.0\ref\netstandard1.3\System.Net.Sockets.dll
--reference:C:\Users\userracer\.nuget\packages\System.ObjectModel\4.3.0\ref\netstandard1.3\System.ObjectModel.dll
--reference:C:\Users\userracer\.nuget\packages\System.Reflection\4.3.0\ref\netstandard1.5\System.Reflection.dll
--reference:C:\Users\userracer\.nuget\packages\System.Reflection.Extensions\4.3.0\ref\netstandard1.0\System.Reflection.Extensions.dll
--reference:C:\Users\userracer\.nuget\packages\System.Reflection.Primitives\4.3.0\ref\netstandard1.0\System.Reflection.Primitives.dll
--reference:C:\Users\userracer\.nuget\packages\System.Reflection.TypeExtensions\4.3.0\ref\netstandard1.5\System.Reflection.TypeExtensions.dll
--reference:C:\Users\userracer\.nuget\packages\System.Resources.ResourceManager\4.3.0\ref\netstandard1.0\System.Resources.ResourceManager.dll
--reference:C:\Users\userracer\.nuget\packages\System.Runtime\4.3.0\ref\netstandard1.5\System.Runtime.dll
--reference:C:\Users\userracer\.nuget\packages\System.Runtime.CompilerServices.Unsafe\4.3.0\lib\netstandard1.0\System.Runtime.CompilerServices.Unsafe.dll
--reference:C:\Users\userracer\.nuget\packages\System.Runtime.Extensions\4.3.0\ref\netstandard1.5\System.Runtime.Extensions.dll
--reference:C:\Users\userracer\.nuget\packages\System.Runtime.Handles\4.0.1\ref\netstandard1.3\System.Runtime.Handles.dll
--reference:C:\Users\userracer\.nuget\packages\System.Runtime.InteropServices\4.1.0\ref\netstandard1.5\System.Runtime.InteropServices.dll
--reference:C:\Users\userracer\.nuget\packages\System.Runtime.InteropServices.RuntimeInformation\4.0.0\ref\netstandard1.1\System.Runtime.InteropServices.RuntimeInformation.dll
--reference:C:\Users\userracer\.nuget\packages\System.Runtime.Numerics\4.0.1\ref\netstandard1.1\System.Runtime.Numerics.dll
--reference:C:\Users\userracer\.nuget\packages\System.Runtime.Serialization.Primitives\4.1.1\ref\netstandard1.3\System.Runtime.Serialization.Primitives.dll
--reference:C:\Users\userracer\.nuget\packages\System.Security.Cryptography.Algorithms\4.2.0\ref\netstandard1.6\System.Security.Cryptography.Algorithms.dll
--reference:C:\Users\userracer\.nuget\packages\System.Security.Cryptography.Encoding\4.0.0\ref\netstandard1.3\System.Security.Cryptography.Encoding.dll
--reference:C:\Users\userracer\.nuget\packages\System.Security.Cryptography.Primitives\4.0.0\ref\netstandard1.3\System.Security.Cryptography.Primitives.dll
--reference:C:\Users\userracer\.nuget\packages\System.Security.Cryptography.X509Certificates\4.1.0\ref\netstandard1.4\System.Security.Cryptography.X509Certificates.dll
--reference:C:\Users\userracer\.nuget\packages\System.Text.Encoding\4.3.0\ref\netstandard1.3\System.Text.Encoding.dll
--reference:C:\Users\userracer\.nuget\packages\System.Text.Encoding.Extensions\4.0.11\ref\netstandard1.3\System.Text.Encoding.Extensions.dll
--reference:C:\Users\userracer\.nuget\packages\System.Text.RegularExpressions\4.3.0\ref\netstandard1.6\System.Text.RegularExpressions.dll
--reference:C:\Users\userracer\.nuget\packages\System.Threading\4.3.0\ref\netstandard1.3\System.Threading.dll
--reference:C:\Users\userracer\.nuget\packages\System.Threading.Tasks\4.3.0\ref\netstandard1.3\System.Threading.Tasks.dll
--reference:C:\Users\userracer\.nuget\packages\System.Threading.Timer\4.0.1\ref\netstandard1.2\System.Threading.Timer.dll
--reference:C:\Users\userracer\.nuget\packages\System.Xml.ReaderWriter\4.0.11\ref\netstandard1.3\System.Xml.ReaderWriter.dll
--reference:C:\Users\userracer\.nuget\packages\System.Xml.XDocument\4.0.11\ref\netstandard1.3\System.Xml.XDocument.dll
--reference:D:\Alena\Training.Net\AAADB\TicketsApplication\src\TicketsApplication\bin\src\DAL\bin\Debug\netstandard1.6\DAL.dll
D:\Alena\Training.Net\AAADB\TicketsApplication\src\BLL\DTO\CityDTO.cs
D:\Alena\Training.Net\AAADB\TicketsApplication\src\BLL\DTO\EventDTO.cs
D:\Alena\Training.Net\AAADB\TicketsApplication\src\BLL\DTO\OrderDTO.cs
D:\Alena\Training.Net\AAADB\TicketsApplication\src\BLL\DTO\PasswordDTO.cs
D:\Alena\Training.Net\AAADB\TicketsApplication\src\BLL\DTO\RoleDTO.cs
D:\Alena\Training.Net\AAADB\TicketsApplication\src\BLL\DTO\TicketCountDTO.cs
D:\Alena\Training.Net\AAADB\TicketsApplication\src\BLL\DTO\TicketDTO.cs
D:\Alena\Training.Net\AAADB\TicketsApplication\src\BLL\DTO\UserDTO.cs
D:\Alena\Training.Net\AAADB\TicketsApplication\src\BLL\DTO\VenueDTO.cs
D:\Alena\Training.Net\AAADB\TicketsApplication\src\BLL\Interfaces\IEventService.cs
D:\Alena\Training.Net\AAADB\TicketsApplication\src\BLL\Properties\AssemblyInfo.cs
D:\Alena\Training.Net\AAADB\TicketsApplication\src\BLL\Services\EventService.cs
