﻿-d:DEBUG
-d:TRACE
-d:NETSTANDARD1_6
-nowarn:CS1701
-nowarn:CS1702
-nowarn:CS1705
-t:library
-debug:full
-nostdlib
-nologo
"D:\Alena\Training.Net\AAADB\TicketsApplication\src\TicketsApplication\bin\src\BLL\obj\Debug\netstandard1.6\dotnet-compile.assemblyinfo.cs"
-out:"D:\Alena\Training.Net\AAADB\TicketsApplication\src\TicketsApplication\bin\src\BLL\bin\Debug\netstandard1.6\BLL.dll"
-r:"C:\Users\userracer\.nuget\packages\AutoMapper\5.2.0\lib\netstandard1.3\AutoMapper.dll"
-r:"C:\Users\userracer\.nuget\packages\AutoMapper.Extensions.Microsoft.DependencyInjection\1.2.0\lib\netstandard1.6\AutoMapper.Extensions.Microsoft.DependencyInjection.dll"
-r:"C:\Users\userracer\.nuget\packages\Microsoft.CSharp\4.0.1\ref\netstandard1.0\Microsoft.CSharp.dll"
-r:"C:\Users\userracer\.nuget\packages\Microsoft.DotNet.InternalAbstractions\1.0.0\lib\netstandard1.3\Microsoft.DotNet.InternalAbstractions.dll"
-r:"C:\Users\userracer\.nuget\packages\Microsoft.EntityFrameworkCore\1.1.0\lib\netstandard1.3\Microsoft.EntityFrameworkCore.dll"
-r:"C:\Users\userracer\.nuget\packages\Microsoft.Extensions.Caching.Abstractions\1.1.0\lib\netstandard1.0\Microsoft.Extensions.Caching.Abstractions.dll"
-r:"C:\Users\userracer\.nuget\packages\Microsoft.Extensions.Caching.Memory\1.1.0\lib\netstandard1.3\Microsoft.Extensions.Caching.Memory.dll"
-r:"C:\Users\userracer\.nuget\packages\Microsoft.Extensions.DependencyInjection\1.1.0\lib\netstandard1.1\Microsoft.Extensions.DependencyInjection.dll"
-r:"C:\Users\userracer\.nuget\packages\Microsoft.Extensions.DependencyInjection.Abstractions\1.1.0\lib\netstandard1.0\Microsoft.Extensions.DependencyInjection.Abstractions.dll"
-r:"C:\Users\userracer\.nuget\packages\Microsoft.Extensions.DependencyModel\1.0.0\lib\netstandard1.6\Microsoft.Extensions.DependencyModel.dll"
-r:"C:\Users\userracer\.nuget\packages\Microsoft.Extensions.Logging\1.1.0\lib\netstandard1.1\Microsoft.Extensions.Logging.dll"
-r:"C:\Users\userracer\.nuget\packages\Microsoft.Extensions.Logging.Abstractions\1.1.0\lib\netstandard1.1\Microsoft.Extensions.Logging.Abstractions.dll"
-r:"C:\Users\userracer\.nuget\packages\Microsoft.Extensions.Options\1.1.0\lib\netstandard1.0\Microsoft.Extensions.Options.dll"
-r:"C:\Users\userracer\.nuget\packages\Microsoft.Extensions.Primitives\1.1.0\lib\netstandard1.0\Microsoft.Extensions.Primitives.dll"
-r:"C:\Users\userracer\.nuget\packages\Microsoft.Win32.Primitives\4.0.1\ref\netstandard1.3\Microsoft.Win32.Primitives.dll"
-r:"C:\Users\userracer\.nuget\packages\Newtonsoft.Json\9.0.1\lib\netstandard1.0\Newtonsoft.Json.dll"
-r:"C:\Users\userracer\.nuget\packages\Remotion.Linq\2.1.1\lib\netstandard1.0\Remotion.Linq.dll"
-r:"C:\Users\userracer\.nuget\packages\System.AppContext\4.1.0\ref\netstandard1.6\System.AppContext.dll"
-r:"C:\Users\userracer\.nuget\packages\System.Collections\4.3.0\ref\netstandard1.3\System.Collections.dll"
-r:"C:\Users\userracer\.nuget\packages\System.Collections.Concurrent\4.0.12\ref\netstandard1.3\System.Collections.Concurrent.dll"
-r:"C:\Users\userracer\.nuget\packages\System.Collections.Immutable\1.3.0\lib\netstandard1.0\System.Collections.Immutable.dll"
-r:"C:\Users\userracer\.nuget\packages\System.Collections.NonGeneric\4.0.1\ref\netstandard1.3\System.Collections.NonGeneric.dll"
-r:"C:\Users\userracer\.nuget\packages\System.Collections.Specialized\4.0.1\ref\netstandard1.3\System.Collections.Specialized.dll"
-r:"C:\Users\userracer\.nuget\packages\System.ComponentModel\4.3.0\ref\netstandard1.0\System.ComponentModel.dll"
-r:"C:\Users\userracer\.nuget\packages\System.ComponentModel.Annotations\4.3.0\ref\netstandard1.4\System.ComponentModel.Annotations.dll"
-r:"C:\Users\userracer\.nuget\packages\System.ComponentModel.Primitives\4.1.0\ref\netstandard1.0\System.ComponentModel.Primitives.dll"
-r:"C:\Users\userracer\.nuget\packages\System.ComponentModel.TypeConverter\4.1.0\ref\netstandard1.5\System.ComponentModel.TypeConverter.dll"
-r:"C:\Users\userracer\.nuget\packages\System.Console\4.0.0\ref\netstandard1.3\System.Console.dll"
-r:"C:\Users\userracer\.nuget\packages\System.Diagnostics.Debug\4.3.0\ref\netstandard1.3\System.Diagnostics.Debug.dll"
-r:"C:\Users\userracer\.nuget\packages\System.Diagnostics.Tools\4.0.1\ref\netstandard1.0\System.Diagnostics.Tools.dll"
-r:"C:\Users\userracer\.nuget\packages\System.Diagnostics.Tracing\4.1.0\ref\netstandard1.5\System.Diagnostics.Tracing.dll"
-r:"C:\Users\userracer\.nuget\packages\System.Dynamic.Runtime\4.0.11\ref\netstandard1.3\System.Dynamic.Runtime.dll"
-r:"C:\Users\userracer\.nuget\packages\System.Globalization\4.3.0\ref\netstandard1.3\System.Globalization.dll"
-r:"C:\Users\userracer\.nuget\packages\System.Globalization.Calendars\4.0.1\ref\netstandard1.3\System.Globalization.Calendars.dll"
-r:"C:\Users\userracer\.nuget\packages\System.Interactive.Async\3.0.0\lib\netstandard1.0\System.Interactive.Async.dll"
-r:"C:\Users\userracer\.nuget\packages\System.IO\4.3.0\ref\netstandard1.5\System.IO.dll"
-r:"C:\Users\userracer\.nuget\packages\System.IO.Compression\4.1.0\ref\netstandard1.3\System.IO.Compression.dll"
-r:"C:\Users\userracer\.nuget\packages\System.IO.Compression.ZipFile\4.0.1\ref\netstandard1.3\System.IO.Compression.ZipFile.dll"
-r:"C:\Users\userracer\.nuget\packages\System.IO.FileSystem\4.0.1\ref\netstandard1.3\System.IO.FileSystem.dll"
-r:"C:\Users\userracer\.nuget\packages\System.IO.FileSystem.Primitives\4.0.1\ref\netstandard1.3\System.IO.FileSystem.Primitives.dll"
-r:"C:\Users\userracer\.nuget\packages\System.Linq\4.3.0\ref\netstandard1.6\System.Linq.dll"
-r:"C:\Users\userracer\.nuget\packages\System.Linq.Expressions\4.3.0\ref\netstandard1.6\System.Linq.Expressions.dll"
-r:"C:\Users\userracer\.nuget\packages\System.Linq.Queryable\4.3.0\ref\netstandard1.0\System.Linq.Queryable.dll"
-r:"C:\Users\userracer\.nuget\packages\System.Net.Http\4.1.0\ref\netstandard1.3\System.Net.Http.dll"
-r:"C:\Users\userracer\.nuget\packages\System.Net.Primitives\4.0.11\ref\netstandard1.3\System.Net.Primitives.dll"
-r:"C:\Users\userracer\.nuget\packages\System.Net.Sockets\4.1.0\ref\netstandard1.3\System.Net.Sockets.dll"
-r:"C:\Users\userracer\.nuget\packages\System.ObjectModel\4.3.0\ref\netstandard1.3\System.ObjectModel.dll"
-r:"C:\Users\userracer\.nuget\packages\System.Reflection\4.3.0\ref\netstandard1.5\System.Reflection.dll"
-r:"C:\Users\userracer\.nuget\packages\System.Reflection.Extensions\4.3.0\ref\netstandard1.0\System.Reflection.Extensions.dll"
-r:"C:\Users\userracer\.nuget\packages\System.Reflection.Primitives\4.3.0\ref\netstandard1.0\System.Reflection.Primitives.dll"
-r:"C:\Users\userracer\.nuget\packages\System.Reflection.TypeExtensions\4.3.0\ref\netstandard1.5\System.Reflection.TypeExtensions.dll"
-r:"C:\Users\userracer\.nuget\packages\System.Resources.ResourceManager\4.3.0\ref\netstandard1.0\System.Resources.ResourceManager.dll"
-r:"C:\Users\userracer\.nuget\packages\System.Runtime\4.3.0\ref\netstandard1.5\System.Runtime.dll"
-r:"C:\Users\userracer\.nuget\packages\System.Runtime.CompilerServices.Unsafe\4.3.0\lib\netstandard1.0\System.Runtime.CompilerServices.Unsafe.dll"
-r:"C:\Users\userracer\.nuget\packages\System.Runtime.Extensions\4.3.0\ref\netstandard1.5\System.Runtime.Extensions.dll"
-r:"C:\Users\userracer\.nuget\packages\System.Runtime.Handles\4.0.1\ref\netstandard1.3\System.Runtime.Handles.dll"
-r:"C:\Users\userracer\.nuget\packages\System.Runtime.InteropServices\4.1.0\ref\netstandard1.5\System.Runtime.InteropServices.dll"
-r:"C:\Users\userracer\.nuget\packages\System.Runtime.InteropServices.RuntimeInformation\4.0.0\ref\netstandard1.1\System.Runtime.InteropServices.RuntimeInformation.dll"
-r:"C:\Users\userracer\.nuget\packages\System.Runtime.Numerics\4.0.1\ref\netstandard1.1\System.Runtime.Numerics.dll"
-r:"C:\Users\userracer\.nuget\packages\System.Runtime.Serialization.Primitives\4.1.1\ref\netstandard1.3\System.Runtime.Serialization.Primitives.dll"
-r:"C:\Users\userracer\.nuget\packages\System.Security.Cryptography.Algorithms\4.2.0\ref\netstandard1.6\System.Security.Cryptography.Algorithms.dll"
-r:"C:\Users\userracer\.nuget\packages\System.Security.Cryptography.Encoding\4.0.0\ref\netstandard1.3\System.Security.Cryptography.Encoding.dll"
-r:"C:\Users\userracer\.nuget\packages\System.Security.Cryptography.Primitives\4.0.0\ref\netstandard1.3\System.Security.Cryptography.Primitives.dll"
-r:"C:\Users\userracer\.nuget\packages\System.Security.Cryptography.X509Certificates\4.1.0\ref\netstandard1.4\System.Security.Cryptography.X509Certificates.dll"
-r:"C:\Users\userracer\.nuget\packages\System.Text.Encoding\4.3.0\ref\netstandard1.3\System.Text.Encoding.dll"
-r:"C:\Users\userracer\.nuget\packages\System.Text.Encoding.Extensions\4.0.11\ref\netstandard1.3\System.Text.Encoding.Extensions.dll"
-r:"C:\Users\userracer\.nuget\packages\System.Text.RegularExpressions\4.3.0\ref\netstandard1.6\System.Text.RegularExpressions.dll"
-r:"C:\Users\userracer\.nuget\packages\System.Threading\4.3.0\ref\netstandard1.3\System.Threading.dll"
-r:"C:\Users\userracer\.nuget\packages\System.Threading.Tasks\4.3.0\ref\netstandard1.3\System.Threading.Tasks.dll"
-r:"C:\Users\userracer\.nuget\packages\System.Threading.Timer\4.0.1\ref\netstandard1.2\System.Threading.Timer.dll"
-r:"C:\Users\userracer\.nuget\packages\System.Xml.ReaderWriter\4.0.11\ref\netstandard1.3\System.Xml.ReaderWriter.dll"
-r:"C:\Users\userracer\.nuget\packages\System.Xml.XDocument\4.0.11\ref\netstandard1.3\System.Xml.XDocument.dll"
-r:"D:\Alena\Training.Net\AAADB\TicketsApplication\src\TicketsApplication\bin\src\DAL\bin\Debug\netstandard1.6\DAL.dll"
"D:\Alena\Training.Net\AAADB\TicketsApplication\src\BLL\DTO\CityDTO.cs"
"D:\Alena\Training.Net\AAADB\TicketsApplication\src\BLL\DTO\EventDTO.cs"
"D:\Alena\Training.Net\AAADB\TicketsApplication\src\BLL\DTO\OrderDTO.cs"
"D:\Alena\Training.Net\AAADB\TicketsApplication\src\BLL\DTO\PasswordDTO.cs"
"D:\Alena\Training.Net\AAADB\TicketsApplication\src\BLL\DTO\RoleDTO.cs"
"D:\Alena\Training.Net\AAADB\TicketsApplication\src\BLL\DTO\TicketCountDTO.cs"
"D:\Alena\Training.Net\AAADB\TicketsApplication\src\BLL\DTO\TicketDTO.cs"
"D:\Alena\Training.Net\AAADB\TicketsApplication\src\BLL\DTO\UserDTO.cs"
"D:\Alena\Training.Net\AAADB\TicketsApplication\src\BLL\DTO\VenueDTO.cs"
"D:\Alena\Training.Net\AAADB\TicketsApplication\src\BLL\Interfaces\IEventService.cs"
"D:\Alena\Training.Net\AAADB\TicketsApplication\src\BLL\Properties\AssemblyInfo.cs"
"D:\Alena\Training.Net\AAADB\TicketsApplication\src\BLL\Services\EventService.cs"
